R Tips - duckdb
…
dbDisconnect(con)

2.4 dbplyr

Code

con <- dbConnect(duckdb())
duckdb_register(con, "flights", nycflights13::flights)

tbl(con, "flights") |>
  group_by(dest) |>
  summarise(delay = mean(dep_time, na.rm = TRUE)) |>
  collect()
#> # A tibble: 105 × 2
#>    dest  delay
#>    <chr> <dbl>
#>  1 FLL   1327.
#>  2 RSW   1209.
#>  3 ROC   1473.
#>  4 SYR   1474.
#>  5 CMH   1421.
#>  6 CHS   1299.
#>  7 STL   1344.
#>  8 STT    830.
#>  9 OMA   1388.
#> 10 OKC   1996.
#> # ℹ 95 more rows
…
