R Tips - Graphic Design with ggplot2
…
Code

bikes <- read_csv(here::here(cur_dir,"ggplot2-course-data/london-bikes-custom.csv"))
#> Rows: 1454 Columns: 14
#> ── Column specification ────────────────────────────────────────────────────────
#> Delimiter: ","
#> chr   (3): day_night, season, weather_type
#> dbl  (10): year, month, count, is_workday, is_weekend, is_holiday, temp, tem...
#> date  (1): date
#> 
#> ℹ Use `spec()` to retrieve the full column specification for this data.
#> ℹ Specify the column types or set `show_col_types = FALSE` to quiet this message.
bikes
#> # A tibble: 1,454 × 14
#>    date       day_night  year month season count is_workday is_weekend
#>    <date>     <chr>     <dbl> <dbl> <chr>  <dbl>      <dbl>      <dbl>
#>  1 2015-01-04 day        2015     1 winter  6830          0          1
#>  2 2015-01-04 night      2015     1 winter  2404          0          1
#>  3 2015-01-05 day        2015     1 winter 14763          1          0
#>  4 2015-01-05 night      2015     1 winter  5609          1          0
#>  5 2015-01-06 day        2015     1 winter 14501          1          0
#>  6 2015-01-06 night      2015     1 winter  6112          1          0
#>  7 2015-01-07 day        2015     1 winter 16358          1          0
#>  8 2015-01-07 night      2015     1 winter  4706          1          0
#>  9 2015-01-08 day        2015     1 winter  9971          1          0
#> 10 2015-01-08 night      2015     1 winter  5630          1          0
#> # ℹ 1,444 more rows
#> # ℹ 6 more variables: is_holiday <dbl>, temp <dbl>, temp_feel <dbl>,
#> #   humidity <dbl>, wind_speed <dbl>, weather_type <chr>
…
