23 Arrow – R Tips
…
前述したように, collectで評価される.

Code

query |> collect()
#> # A tibble: 178 × 3
#> # Groups:   CheckoutYear [15]
#>    CheckoutYear CheckoutMonth TotalCheckouts
#>           <int>         <int>          <int>
#>  1         2008             1         343384
#>  2         2008             2         315806
#>  3         2008             3         291710
#>  4         2008             4         341452
#>  5         2008             5         328072
#>  6         2008             6         356621
#>  7         2008             7         388959
#>  8         2008             8         363506
#>  9         2008             9         353561
#> 10         2008            10         354779
#> # ℹ 168 more rows
…
