R Tips - ggplot2 Tips
…
usa_crop_yields
#> # A tibble: 522 × 3
#>     year crop     yield
#>    <dbl> <chr>    <dbl>
#>  1  1961 Wheat     1.61
#>  2  1961 Rice      3.82
#>  3  1961 Maize     3.92
#>  4  1961 Soybeans  1.69
#>  5  1961 Potatoes 22.2 
#>  6  1961 Beans     1.54
#>  7  1961 Peas      1.19
#>  8  1961 Barley    1.65
#>  9  1961 Bananas  10.5 
#> 10  1962 Wheat     1.68
#> # ℹ 512 more rows
…
