R Tips - ch04 回帰分析の基礎
…
ノンパラメトリック回帰として時刻ごとの平均値を求める。

Code

tempdata |> 
    group_by(time) |> 
    summarise(across(c(temp), .fns = list(mean = mean, sd = sd, max = max, min = min)))
#> # A tibble: 24 × 5
#>    time   temp_mean temp_sd temp_max temp_min
#>    <time>     <dbl>   <dbl>    <dbl>    <dbl>
#>  1 00:00       26.4    2.75     29.3     20.1
#>  2 01:00       26.1    2.73     29.3     19.8
#>  3 02:00       25.9    2.69     28.7     19.8
#>  4 03:00       25.8    2.61     28.3     20.2
#>  5 04:00       25.7    2.67     28.5     19.9
#>  6 05:00       25.8    2.76     28.6     20.1
#>  7 06:00       26.4    3.10     29.8     19.9
#>  8 07:00       27.3    3.41     31.1     20.2
#>  9 08:00       28.1    3.54     32.1     20.5
#> 10 09:00       29.0    3.80     33.5     20.9
#> # ℹ 14 more rows
…
