R Tips - ch05 推測統計の基礎
…
    Modified

      October 17, 2023

1 Setup

2 平均値の検定

Code

data_path <- here(cur_dir, "data/R_EmpiricalAnalysis_csv/chap05/distributions.csv")
simdata <- read_csv(data_path, show_col_types = FALSE)
simdata
#> # A tibble: 100 × 2
#>    distA  distB
#>    <dbl>  <dbl>
#>  1  2.83  0.816
#>  2  2.66  0.755
#>  3  2.64 -0.971
#>  4  1.31 -0.572
#>  5  2.29  0.450
#>  6  1.44  0.848
#>  7  2.56  0.130
#>  8  1.30 -0.640
#>  9  1.39  0.196
#> 10  1.27  0.817
#> # ℹ 90 more rows
…
