R Tips - ch09 マッチング法
…
マッチングに使われたデータは次である。重複については重みで管理されているみたいです。 このあたりは詳しい使い方を調べる必要がある。

Code

match.data(m.out) 
#> # A tibble: 362 × 7
#>    wagea     D years wageb  educ female weights
#>    <dbl> <dbl> <dbl> <dbl> <dbl>  <dbl>   <dbl>
#>  1    19     1     4    18    17      1   1    
#>  2    20     1     2    18    15      1   1    
#>  3    36     1    14    34    14      1   1    
#>  4    18     0     4    18    11      1   2.61 
#>  5    29     0    19    29    15      0   0.521
#>  6    21     1     3    20    18      1   1    
#>  7    31     0    13    31    15      1   1.04 
#>  8    26     0    13    26    14      0   2.61 
#>  9    35     0    19    34    15      1   0.521
#> 10    33     0    13    33    15      1   0.521
#> # ℹ 352 more rows
…
