Spatialite – R Tips
…
ここで作成したＤＢにはInitSpatialMetadataが実行されていないので、シェルで実行する必要がある。

Code

inputfile <- file.path(cur_dir, "dataset", "N03-20250101_prefecture.shp")
pref <- read_sf(inputfile)

pref
#> Simple feature collection with 121990 features and 6 fields
#> Geometry type: POLYGON
#> Dimension:     XY
#> Bounding box:  xmin: 122.9326 ymin: 20.42275 xmax: 153.9867 ymax: 45.55724
#> Geodetic CRS:  JGD2011
#> # A tibble: 121,990 × 7
#>    N03_001 N03_002 N03_003 N03_004 N03_005 N03_007                      geometry
#>    <chr>   <chr>   <chr>   <chr>   <chr>   <chr>                   <POLYGON [°]>
#>  1 北海道  <NA>    <NA>    <NA>    <NA>    01000   ((141.9412 45.52146, 141.941…
#>  2 北海道  <NA>    <NA>    <NA>    <NA>    01000   ((148.7526 45.55693, 148.752…
#>  3 北海道  <NA>    <NA>    <NA>    <NA>    01000   ((146.1667 44.5175, 146.1667…
#>  4 北海道  <NA>    <NA>    <NA>    <NA>    01000   ((146.832 43.88693, 146.8325…
#>  5 北海道  <NA>    <NA>    <NA>    <NA>    01000   ((141.1992 45.25882, 141.199…
#>  6 北海道  <NA>    <NA>    <NA>    <NA>    01000   ((139.5597 42.24942, 139.559…
#>  7 北海道  <NA>    <NA>    <NA>    <NA>    01000   ((140.9673 45.46422, 140.967…
#>  8 北海道  <NA>    <NA>    <NA>    <NA>    01000   ((146.135 43.5489, 146.135 4…
#>  9 北海道  <NA>    <NA>    <NA>    <NA>    01000   ((145.8877 43.46222, 145.887…
#> 10 北海道  <NA>    <NA>    <NA>    <NA>    01000   ((146.3122 43.65147, 146.312…
#> # ℹ 121,980 more rows
…
