arrow – R Tips
…
シングルテーブルの処理をサポートしているので、次のような集約を行うことも可能である。

Code

sw %>%
  group_by(species) %>%
  summarize(mean_height = mean(height, na.rm = TRUE)) %>%
  collect()
#> # A tibble: 38 × 2
#>    species        mean_height
#>    <chr>                <dbl>
#>  1 Human                 178 
#>  2 Droid                 131.
#>  3 Wookiee               231 
#>  4 Rodian                173 
#>  5 Hutt                  175 
#>  6 <NA>                  175 
#>  7 Yoda's species         66 
#>  8 Trandoshan            190 
#>  9 Mon Calamari          180 
#> 10 Ewok                   88 
#> # ℹ 28 more rows
…
register_scalar_function(
  name = "to_snake_name",
  fun = to_snake_name,
  in_type = utf8(),
  out_type = utf8(),
  auto_convert = TRUE
)

Code

sw %>%
  mutate(name, snake_name = to_snake_name(name), .keep = "none") %>%
  collect()
#> # A tibble: 87 × 2
#>    name               snake_name        
#>    <chr>              <chr>             
#>  1 Luke Skywalker     luke_skywalker    
#>  2 C-3PO              c3po              
#>  3 R2-D2              r2d2              
#>  4 Darth Vader        darth_vader       
#>  5 Leia Organa        leia_organa       
#>  6 Owen Lars          owen_lars         
#>  7 Beru Whitesun Lars beru_whitesun_lars
#>  8 R5-D4              r5d4              
#>  9 Biggs Darklighter  biggs_darklighter 
#> 10 Obi-Wan Kenobi     obiwan_kenobi     
#> # ℹ 77 more rows

2.3.4 Handling unsupported expressions

処理途中で未登録の関数があったら自動でcollectが走る。

Code

sw %>%
  filter(!is.na(height), !is.na(mass)) %>%
  transmute(name, height, mass, res = residuals(lm(mass ~ height)))
#> Warning: In residuals(lm(mass ~ height)): 
#> ℹ Expression not supported in Arrow
#> → Pulling data into R
#> # A tibble: 59 × 4
#>    name               height  mass   res
#>    <chr>               <int> <dbl> <dbl>
#>  1 Luke Skywalker        172    77 -18.8
#>  2 C-3PO                 167    75 -17.7
#>  3 R2-D2                  96    32 -16.4
#>  4 Darth Vader           202   136  21.4
#>  5 Leia Organa           150    49 -33.1
#>  6 Owen Lars             178   120  20.4
#>  7 Beru Whitesun Lars    165    75 -16.5
#>  8 R5-D4                  97    32 -17.0
#>  9 Biggs Darklighter     183    84 -18.7
#> 10 Obi-Wan Kenobi        182    77 -25.1
#> # ℹ 49 more rows
…
