R Tips - 傾向スコアマッチング
…
# マッチング後のデータを抽出
m.data1 <- match.data(m.out1)
model1  <- lm(y3 ~ t1, data = m.data1, weights = weights)
model2  <- lm(y3 ~ t1 + x1 + x2 + x3 + x4 + x5 + x6, data = m.data1, weights = weights)

Code

m.data1
#> # A tibble: 618 × 12
#>       y0t   y1t     y3    t1     x1     x2      x3    x4      x5     x6 distance
#>     <dbl> <dbl>  <dbl> <dbl>  <dbl>  <dbl>   <dbl> <dbl>   <dbl>  <dbl>    <dbl>
#>  1 61.6   64.7  64.7       1  0.640 -1.20  -0.0539 1.67   2.11    2.47     0.618
#>  2 -0.275 -1.97 -0.275     0 -0.473  0.747  0.961  0.956  0.223  -1.06     0.210
#>  3 46.8   48.3  48.3       1  0.846 -0.855  0.159  1.05   1.29    2.05     0.515
#>  4 31.0   34.6  34.6       1  0.680 -0.106  0.304  0.362  1.66    0.992    0.427
#>  5 53.3   54.3  54.3       1  1.70   2.02   2.23   2.88   1.58    1.22     0.481
#>  6 23.6   20.6  23.6       0 -0.752 -0.567  0.440  1.56   0.686   0.263    0.348
#>  7 49.5   56.3  49.5       0  2.13   2.11   1.72   1.66   1.27    1.94     0.467
#>  8 54.5   44.1  54.5       0  1.40  -0.291  1.67   1.58   0.982   2.05     0.549
#>  9 15.1   30.3  30.3       1  1.48   2.36   0.775  0.918 -0.0192  0.808    0.245
#> 10 24.4   42.3  42.3       1  0.357  1.47  -0.0248 0.435  1.79    0.733    0.341
#> # ℹ 608 more rows
#> # ℹ 1 more variable: weights <dbl>
…
