傾向スコアによる層化解析法および重み付き法 – R Tips
…
library(MatchIt)
#> Warning: package 'MatchIt' was built under R version 4.3.2

sub    <- 5
m.out2 <- matchit(
    t1 ~ x1 + x2 + x3 + x4 + x5 + x6, 
    data      = data11, 
    method    = "subclass", 
    subclass  = sub, 
    estimand  = "ATE", 
    min.n     = 2
)
m.data2 <- match.data(m.out2)
m.data2
#> # A tibble: 1,000 × 13
#>        y0t   y1t      y3    t1     x1     x2      x3       x4       x5     x6
#>      <dbl> <dbl>   <dbl> <dbl>  <dbl>  <dbl>   <dbl>    <dbl>    <dbl>  <dbl>
#>  1  12.7   23.2   12.7       0  2.75   3.08   1.74    1.04     0.708   -0.411
#>  2  61.6   64.7   64.7       1  0.640 -1.20  -0.0539  1.67     2.11     2.47 
#>  3  -0.275 -1.97  -0.275     0 -0.473  0.747  0.961   0.956    0.223   -1.06 
#>  4  25.8   38.4   25.8       0  1.27  -0.828 -0.962   0.00882  0.668    1.81 
#>  5  24.8   21.0   24.8       0  0.640 -0.492  0.630   0.114    0.936    0.886
#>  6  46.8   48.3   48.3       1  0.846 -0.855  0.159   1.05     1.29     2.05 
#>  7  31.0   34.6   34.6       1  0.680 -0.106  0.304   0.362    1.66     0.992
#>  8  53.3   54.3   54.3       1  1.70   2.02   2.23    2.88     1.58     1.22 
#>  9  23.6   20.6   23.6       0 -0.752 -0.567  0.440   1.56     0.686    0.263
#> 10 -17.8   11.4  -17.8       0  1.05   0.397 -2.04   -0.851   -0.00748 -0.232
#> # ℹ 990 more rows
#> # ℹ 3 more variables: distance <dbl>, weights <dbl>, subclass <fct>
…
